net.name = '2jets';
net.type = 'cl';
net.seedmode=0;
net.seed = 9505;
net.standardcl = 'on';
pool(1).name = 'bias';
pool(1).type = 'bias';
pool(1).nunits = 1;
pool(2).name = 'inp';
pool(2).type = 'input';
pool(2).nunits = 14;
pool(3).name = 'out';
pool(3).type = 'output';
pool(3).nunits = 2;
pool(3).proj(1).frompool = 'inp';
pool(3).proj(1).constraint_type = 'Random';
